\BOOKMARK [1][-]{section.1}{Exercise 1 - HTTP: Basics}{}% 1
\BOOKMARK [1][-]{section.2}{Exercise 2 - HTML: Structure and Meta-Tags}{}% 2
\BOOKMARK [1][-]{section.3}{Exercise 3 - HTML: Booking form based on tables}{}% 3
